^C:\Users\YongHwan\Desktop\GSE_Project\02_2014180020\SimpleGame\SimpleGame\SimpleGame.vcxproj
C:\Users\YongHwan\Desktop\GSE_Project\02_2014180020\SimpleGame\x64\Release\SimpleGame.ipdb
C:\Users\YongHwan\Desktop\GSE_Project\02_2014180020\SimpleGame\x64\Release\SimpleGame.iobj
^C:\Users\YongHwan\Desktop\GSE_Project\02_2014180020\SimpleGame\SimpleGame\SimpleGame.vcxproj
C:\Users\YongHwan\Desktop\GSE_Project\02_2014180020\SimpleGame\x64\Release\SimpleGame.ipdb
C:\Users\YongHwan\Desktop\GSE_Project\02_2014180020\SimpleGame\x64\Release\SimpleGame.iobj
^C:\Users\YongHwan\Desktop\GSE_Project\02_2014180020\SimpleGame\SimpleGame\SimpleGame.vcxproj
C:\Users\YongHwan\Desktop\GSE_Project\02_2014180020\SimpleGame\x64\Release\SimpleGame.ipdb
C:\Users\YongHwan\Desktop\GSE_Project\02_2014180020\SimpleGame\x64\Release\SimpleGame.iobj
^C:\Users\YongHwan\Desktop\GSE_Project\02_2014180020\SimpleGame\SimpleGame\SimpleGame.vcxproj
C:\Users\YongHwan\Desktop\GSE_Project\02_2014180020\SimpleGame\x64\Release\SimpleGame.ipdb
C:\Users\YongHwan\Desktop\GSE_Project\02_2014180020\SimpleGame\x64\Release\SimpleGame.iobj
^C:\Users\YongHwan\Desktop\GSE_Project\02_2014180020\SimpleGame\SimpleGame\SimpleGame.vcxproj
C:\Users\YongHwan\Desktop\GSE_Project\02_2014180020\SimpleGame\x64\Release\SimpleGame.ipdb
C:\Users\YongHwan\Desktop\GSE_Project\02_2014180020\SimpleGame\x64\Release\SimpleGame.iobj
^C:\Users\YongHwan\Desktop\GSE_Project\02_2014180020\SimpleGame\SimpleGame\SimpleGame.vcxproj
C:\Users\YongHwan\Desktop\GSE_Project\02_2014180020\SimpleGame\x64\Release\SimpleGame.ipdb
C:\Users\YongHwan\Desktop\GSE_Project\02_2014180020\SimpleGame\x64\Release\SimpleGame.iobj
^C:\Users\YongHwan\Desktop\GSE_Project\02_2014180020\SimpleGame\SimpleGame\SimpleGame.vcxproj
C:\Users\YongHwan\Desktop\GSE_Project\02_2014180020\SimpleGame\x64\Release\SimpleGame.ipdb
C:\Users\YongHwan\Desktop\GSE_Project\02_2014180020\SimpleGame\x64\Release\SimpleGame.iobj
^C:\Users\YongHwan\Desktop\GSE_Project\02_2014180020\SimpleGame\SimpleGame\SimpleGame.vcxproj
C:\Users\YongHwan\Desktop\GSE_Project\02_2014180020\SimpleGame\x64\Release\SimpleGame.ipdb
C:\Users\YongHwan\Desktop\GSE_Project\02_2014180020\SimpleGame\x64\Release\SimpleGame.iobj
^C:\Users\YongHwan\Desktop\GSE_Project\02_2014180020\SimpleGame\SimpleGame\SimpleGame.vcxproj
C:\Users\YongHwan\Desktop\GSE_Project\02_2014180020\SimpleGame\x64\Release\SimpleGame.ipdb
C:\Users\YongHwan\Desktop\GSE_Project\02_2014180020\SimpleGame\x64\Release\SimpleGame.iobj
^C:\Users\YongHwan\Desktop\GSE_Project\02_2014180020\SimpleGame\SimpleGame\SimpleGame.vcxproj
C:\Users\YongHwan\Desktop\GSE_Project\02_2014180020\SimpleGame\x64\Release\SimpleGame.ipdb
C:\Users\YongHwan\Desktop\GSE_Project\02_2014180020\SimpleGame\x64\Release\SimpleGame.iobj
^C:\Users\YongHwan\Desktop\GSE_Project\02_2014180020\SimpleGame\SimpleGame\SimpleGame.vcxproj
C:\Users\YongHwan\Desktop\GSE_Project\02_2014180020\SimpleGame\x64\Release\SimpleGame.ipdb
C:\Users\YongHwan\Desktop\GSE_Project\02_2014180020\SimpleGame\x64\Release\SimpleGame.iobj
^C:\Users\YongHwan\Desktop\GSE_Project\02_2014180020\SimpleGame\SimpleGame\SimpleGame.vcxproj
C:\Users\YongHwan\Desktop\GSE_Project\02_2014180020\SimpleGame\x64\Release\SimpleGame.ipdb
C:\Users\YongHwan\Desktop\GSE_Project\02_2014180020\SimpleGame\x64\Release\SimpleGame.iobj
^C:\Users\YongHwan\Desktop\GSE_Project\02_2014180020\SimpleGame\SimpleGame\SimpleGame.vcxproj
C:\Users\YongHwan\Desktop\GSE_Project\02_2014180020\SimpleGame\x64\Release\SimpleGame.ipdb
C:\Users\YongHwan\Desktop\GSE_Project\02_2014180020\SimpleGame\x64\Release\SimpleGame.iobj
^C:\Users\YongHwan\Desktop\GSE_Project\02_2014180020\SimpleGame\SimpleGame\SimpleGame.vcxproj
C:\Users\YongHwan\Desktop\GSE_Project\02_2014180020\SimpleGame\x64\Release\SimpleGame.ipdb
C:\Users\YongHwan\Desktop\GSE_Project\02_2014180020\SimpleGame\x64\Release\SimpleGame.iobj
^C:\Users\YongHwan\Desktop\GSE_Project\02_2014180020\SimpleGame\SimpleGame\SimpleGame.vcxproj
C:\Users\YongHwan\Desktop\GSE_Project\02_2014180020\SimpleGame\x64\Release\SimpleGame.ipdb
C:\Users\YongHwan\Desktop\GSE_Project\02_2014180020\SimpleGame\x64\Release\SimpleGame.iobj
^C:\Users\YongHwan\Desktop\GSE_Project\02_2014180020\SimpleGame\SimpleGame\SimpleGame.vcxproj
C:\Users\YongHwan\Desktop\GSE_Project\02_2014180020\SimpleGame\x64\Release\SimpleGame.ipdb
C:\Users\YongHwan\Desktop\GSE_Project\02_2014180020\SimpleGame\x64\Release\SimpleGame.iobj
^C:\Users\YongHwan\Desktop\GSE_Project\02_2014180020\SimpleGame\SimpleGame\SimpleGame.vcxproj
C:\Users\YongHwan\Desktop\GSE_Project\02_2014180020\SimpleGame\x64\Release\SimpleGame.ipdb
C:\Users\YongHwan\Desktop\GSE_Project\02_2014180020\SimpleGame\x64\Release\SimpleGame.iobj
^C:\Users\YongHwan\Desktop\GSE_Project\02_2014180020\SimpleGame\SimpleGame\SimpleGame.vcxproj
C:\Users\YongHwan\Desktop\GSE_Project\02_2014180020\SimpleGame\x64\Release\SimpleGame.ipdb
C:\Users\YongHwan\Desktop\GSE_Project\02_2014180020\SimpleGame\x64\Release\SimpleGame.iobj
^C:\Users\YongHwan\Desktop\GSE_Project\02_2014180020\SimpleGame\SimpleGame\SimpleGame.vcxproj
C:\Users\YongHwan\Desktop\GSE_Project\02_2014180020\SimpleGame\x64\Release\SimpleGame.ipdb
C:\Users\YongHwan\Desktop\GSE_Project\02_2014180020\SimpleGame\x64\Release\SimpleGame.iobj
^C:\Users\YongHwan\Desktop\GSE_Project\02_2014180020\SimpleGame\SimpleGame\SimpleGame.vcxproj
C:\Users\YongHwan\Desktop\GSE_Project\02_2014180020\SimpleGame\x64\Release\SimpleGame.ipdb
C:\Users\YongHwan\Desktop\GSE_Project\02_2014180020\SimpleGame\x64\Release\SimpleGame.iobj
^C:\Users\YongHwan\Desktop\GSE_Project\02_2014180020\SimpleGame\SimpleGame\SimpleGame.vcxproj
C:\Users\YongHwan\Desktop\GSE_Project\02_2014180020\SimpleGame\x64\Release\SimpleGame.ipdb
C:\Users\YongHwan\Desktop\GSE_Project\02_2014180020\SimpleGame\x64\Release\SimpleGame.iobj
^C:\Users\YongHwan\Desktop\GSE_Project\02_2014180020\SimpleGame\SimpleGame\SimpleGame.vcxproj
C:\Users\YongHwan\Desktop\GSE_Project\02_2014180020\SimpleGame\x64\Release\SimpleGame.ipdb
C:\Users\YongHwan\Desktop\GSE_Project\02_2014180020\SimpleGame\x64\Release\SimpleGame.iobj
^C:\Users\YongHwan\Desktop\GSE_Project\02_2014180020\SimpleGame\SimpleGame\SimpleGame.vcxproj
C:\Users\YongHwan\Desktop\GSE_Project\02_2014180020\SimpleGame\x64\Release\SimpleGame.ipdb
C:\Users\YongHwan\Desktop\GSE_Project\02_2014180020\SimpleGame\x64\Release\SimpleGame.iobj
^C:\Users\YongHwan\Desktop\GSE_Project\02_2014180020\SimpleGame\SimpleGame\SimpleGame.vcxproj
C:\Users\YongHwan\Desktop\GSE_Project\02_2014180020\SimpleGame\x64\Release\SimpleGame.ipdb
C:\Users\YongHwan\Desktop\GSE_Project\02_2014180020\SimpleGame\x64\Release\SimpleGame.iobj
^C:\Users\YongHwan\Desktop\GSE_Project\02_2014180020\SimpleGame\SimpleGame\SimpleGame.vcxproj
C:\Users\YongHwan\Desktop\GSE_Project\02_2014180020\SimpleGame\x64\Release\SimpleGame.ipdb
C:\Users\YongHwan\Desktop\GSE_Project\02_2014180020\SimpleGame\x64\Release\SimpleGame.iobj
^C:\Users\YongHwan\Desktop\GSE_Project\02_2014180020\SimpleGame\SimpleGame\SimpleGame.vcxproj
C:\Users\YongHwan\Desktop\GSE_Project\02_2014180020\SimpleGame\x64\Release\SimpleGame.ipdb
C:\Users\YongHwan\Desktop\GSE_Project\02_2014180020\SimpleGame\x64\Release\SimpleGame.iobj
^C:\Users\YongHwan\Desktop\GSE_Project\02_2014180020\SimpleGame\SimpleGame\SimpleGame.vcxproj
C:\Users\YongHwan\Desktop\GSE_Project\02_2014180020\SimpleGame\x64\Release\SimpleGame.ipdb
C:\Users\YongHwan\Desktop\GSE_Project\02_2014180020\SimpleGame\x64\Release\SimpleGame.iobj
^C:\Users\YongHwan\Desktop\GSE_Project\02_2014180020\SimpleGame\SimpleGame\SimpleGame.vcxproj
C:\Users\YongHwan\Desktop\GSE_Project\02_2014180020\SimpleGame\x64\Release\SimpleGame.ipdb
C:\Users\YongHwan\Desktop\GSE_Project\02_2014180020\SimpleGame\x64\Release\SimpleGame.iobj
^C:\Users\YongHwan\Desktop\GSE_Project\02_2014180020\SimpleGame\SimpleGame\SimpleGame.vcxproj
C:\Users\YongHwan\Desktop\GSE_Project\02_2014180020\SimpleGame\x64\Release\SimpleGame.ipdb
C:\Users\YongHwan\Desktop\GSE_Project\02_2014180020\SimpleGame\x64\Release\SimpleGame.iobj
^C:\Users\YongHwan\Desktop\GSE_Project\02_2014180020\SimpleGame\SimpleGame\SimpleGame.vcxproj
C:\Users\YongHwan\Desktop\GSE_Project\02_2014180020\SimpleGame\x64\Release\SimpleGame.ipdb
C:\Users\YongHwan\Desktop\GSE_Project\02_2014180020\SimpleGame\x64\Release\SimpleGame.iobj
^C:\Users\YongHwan\Desktop\GSE_Project\02_2014180020\SimpleGame\SimpleGame\SimpleGame.vcxproj
C:\Users\YongHwan\Desktop\GSE_Project\02_2014180020\SimpleGame\x64\Release\SimpleGame.ipdb
C:\Users\YongHwan\Desktop\GSE_Project\02_2014180020\SimpleGame\x64\Release\SimpleGame.iobj
^C:\Users\YongHwan\Desktop\GSE_Project\02_2014180020\SimpleGame\SimpleGame\SimpleGame.vcxproj
C:\Users\YongHwan\Desktop\GSE_Project\02_2014180020\SimpleGame\x64\Release\SimpleGame.ipdb
C:\Users\YongHwan\Desktop\GSE_Project\02_2014180020\SimpleGame\x64\Release\SimpleGame.iobj
^C:\Users\YongHwan\Desktop\GSE_Project\02_2014180020\SimpleGame\SimpleGame\SimpleGame.vcxproj
C:\Users\YongHwan\Desktop\GSE_Project\02_2014180020\SimpleGame\x64\Release\SimpleGame.ipdb
C:\Users\YongHwan\Desktop\GSE_Project\02_2014180020\SimpleGame\x64\Release\SimpleGame.iobj
^C:\Users\YongHwan\Desktop\GSE_Project\02_2014180020\SimpleGame\SimpleGame\SimpleGame.vcxproj
C:\Users\YongHwan\Desktop\GSE_Project\02_2014180020\SimpleGame\x64\Release\SimpleGame.ipdb
C:\Users\YongHwan\Desktop\GSE_Project\02_2014180020\SimpleGame\x64\Release\SimpleGame.iobj
^C:\Users\YongHwan\Desktop\GSE_Project\02_2014180020\SimpleGame\SimpleGame\SimpleGame.vcxproj
C:\Users\YongHwan\Desktop\GSE_Project\02_2014180020\SimpleGame\x64\Release\SimpleGame.ipdb
C:\Users\YongHwan\Desktop\GSE_Project\02_2014180020\SimpleGame\x64\Release\SimpleGame.iobj
^C:\Users\YongHwan\Desktop\GSE_Project\02_2014180020\SimpleGame\SimpleGame\SimpleGame.vcxproj
C:\Users\YongHwan\Desktop\GSE_Project\02_2014180020\SimpleGame\x64\Release\SimpleGame.ipdb
C:\Users\YongHwan\Desktop\GSE_Project\02_2014180020\SimpleGame\x64\Release\SimpleGame.iobj
^C:\Users\YongHwan\Desktop\GSE_Project\02_2014180020\SimpleGame\SimpleGame\SimpleGame.vcxproj
C:\Users\YongHwan\Desktop\GSE_Project\02_2014180020\SimpleGame\x64\Release\SimpleGame.ipdb
C:\Users\YongHwan\Desktop\GSE_Project\02_2014180020\SimpleGame\x64\Release\SimpleGame.iobj
^C:\Users\YongHwan\Desktop\GSE_Project\02_2014180020\SimpleGame\SimpleGame\SimpleGame.vcxproj
C:\Users\YongHwan\Desktop\GSE_Project\02_2014180020\SimpleGame\x64\Release\SimpleGame.ipdb
C:\Users\YongHwan\Desktop\GSE_Project\02_2014180020\SimpleGame\x64\Release\SimpleGame.iobj
^C:\Users\YongHwan\Desktop\GSE_Project\02_2014180020\SimpleGame\SimpleGame\SimpleGame.vcxproj
C:\Users\YongHwan\Desktop\GSE_Project\02_2014180020\SimpleGame\x64\Release\SimpleGame.ipdb
C:\Users\YongHwan\Desktop\GSE_Project\02_2014180020\SimpleGame\x64\Release\SimpleGame.iobj
^C:\Users\YongHwan\Desktop\GSE_Project\02_2014180020\SimpleGame\SimpleGame\SimpleGame.vcxproj
C:\Users\YongHwan\Desktop\GSE_Project\02_2014180020\SimpleGame\x64\Release\SimpleGame.ipdb
C:\Users\YongHwan\Desktop\GSE_Project\02_2014180020\SimpleGame\x64\Release\SimpleGame.iobj
^C:\Users\YongHwan\Desktop\GSE_Project\02_2014180020\SimpleGame\SimpleGame\SimpleGame.vcxproj
C:\Users\YongHwan\Desktop\GSE_Project\02_2014180020\SimpleGame\x64\Release\SimpleGame.ipdb
C:\Users\YongHwan\Desktop\GSE_Project\02_2014180020\SimpleGame\x64\Release\SimpleGame.iobj
^C:\Users\YongHwan\Desktop\GSE_Project\02_2014180020\SimpleGame\SimpleGame\SimpleGame.vcxproj
C:\Users\YongHwan\Desktop\GSE_Project\02_2014180020\SimpleGame\x64\Release\SimpleGame.ipdb
C:\Users\YongHwan\Desktop\GSE_Project\02_2014180020\SimpleGame\x64\Release\SimpleGame.iobj
^C:\Users\YongHwan\Desktop\GSE_Project\02_2014180020\SimpleGame\SimpleGame\SimpleGame.vcxproj
C:\Users\YongHwan\Desktop\GSE_Project\02_2014180020\SimpleGame\x64\Release\SimpleGame.ipdb
C:\Users\YongHwan\Desktop\GSE_Project\02_2014180020\SimpleGame\x64\Release\SimpleGame.iobj
^C:\Users\YongHwan\Desktop\GSE_Project\02_2014180020\SimpleGame\SimpleGame\SimpleGame.vcxproj
C:\Users\YongHwan\Desktop\GSE_Project\02_2014180020\SimpleGame\x64\Release\SimpleGame.ipdb
C:\Users\YongHwan\Desktop\GSE_Project\02_2014180020\SimpleGame\x64\Release\SimpleGame.iobj
^C:\Users\YongHwan\Desktop\GSE_Project\02_2014180020\SimpleGame\SimpleGame\SimpleGame.vcxproj
C:\Users\YongHwan\Desktop\GSE_Project\02_2014180020\SimpleGame\x64\Release\SimpleGame.ipdb
C:\Users\YongHwan\Desktop\GSE_Project\02_2014180020\SimpleGame\x64\Release\SimpleGame.iobj
^C:\Users\YongHwan\Desktop\GSE_Project\02_2014180020\SimpleGame\SimpleGame\SimpleGame.vcxproj
C:\Users\YongHwan\Desktop\GSE_Project\02_2014180020\SimpleGame\x64\Release\SimpleGame.ipdb
C:\Users\YongHwan\Desktop\GSE_Project\02_2014180020\SimpleGame\x64\Release\SimpleGame.iobj
^C:\Users\YongHwan\Desktop\GSE_Project\02_2014180020\SimpleGame\SimpleGame\SimpleGame.vcxproj
C:\Users\YongHwan\Desktop\GSE_Project\02_2014180020\SimpleGame\x64\Release\SimpleGame.ipdb
C:\Users\YongHwan\Desktop\GSE_Project\02_2014180020\SimpleGame\x64\Release\SimpleGame.iobj
^C:\Users\YongHwan\Desktop\GSE_Project\02_2014180020\SimpleGame\SimpleGame\SimpleGame.vcxproj
C:\Users\YongHwan\Desktop\GSE_Project\02_2014180020\SimpleGame\x64\Release\SimpleGame.ipdb
C:\Users\YongHwan\Desktop\GSE_Project\02_2014180020\SimpleGame\x64\Release\SimpleGame.iobj
^C:\Users\YongHwan\Desktop\GSE_Project\02_2014180020\SimpleGame\SimpleGame\SimpleGame.vcxproj
C:\Users\YongHwan\Desktop\GSE_Project\02_2014180020\SimpleGame\x64\Release\SimpleGame.ipdb
C:\Users\YongHwan\Desktop\GSE_Project\02_2014180020\SimpleGame\x64\Release\SimpleGame.iobj
^C:\Users\YongHwan\Desktop\GSE_Project\02_2014180020\SimpleGame\SimpleGame\SimpleGame.vcxproj
C:\Users\YongHwan\Desktop\GSE_Project\02_2014180020\SimpleGame\x64\Release\SimpleGame.ipdb
C:\Users\YongHwan\Desktop\GSE_Project\02_2014180020\SimpleGame\x64\Release\SimpleGame.iobj
^C:\Users\YongHwan\Desktop\GSE_Project\02_2014180020\SimpleGame\SimpleGame\SimpleGame.vcxproj
C:\Users\YongHwan\Desktop\GSE_Project\02_2014180020\SimpleGame\x64\Release\SimpleGame.ipdb
C:\Users\YongHwan\Desktop\GSE_Project\02_2014180020\SimpleGame\x64\Release\SimpleGame.iobj
^C:\Users\YongHwan\Desktop\GSE_Project\02_2014180020\SimpleGame\SimpleGame\SimpleGame.vcxproj
C:\Users\YongHwan\Desktop\GSE_Project\02_2014180020\SimpleGame\x64\Release\SimpleGame.ipdb
C:\Users\YongHwan\Desktop\GSE_Project\02_2014180020\SimpleGame\x64\Release\SimpleGame.iobj
^C:\Users\YongHwan\Desktop\GSE_Project\02_2014180020\SimpleGame\SimpleGame\SimpleGame.vcxproj
C:\Users\YongHwan\Desktop\GSE_Project\02_2014180020\SimpleGame\x64\Release\SimpleGame.ipdb
C:\Users\YongHwan\Desktop\GSE_Project\02_2014180020\SimpleGame\x64\Release\SimpleGame.iobj
^C:\Users\YongHwan\Desktop\GSE_Project\02_2014180020\SimpleGame\SimpleGame\SimpleGame.vcxproj
C:\Users\YongHwan\Desktop\GSE_Project\02_2014180020\SimpleGame\x64\Release\SimpleGame.ipdb
C:\Users\YongHwan\Desktop\GSE_Project\02_2014180020\SimpleGame\x64\Release\SimpleGame.iobj
^C:\Users\YongHwan\Desktop\GSE_Project\02_2014180020\SimpleGame\SimpleGame\SimpleGame.vcxproj
C:\Users\YongHwan\Desktop\GSE_Project\02_2014180020\SimpleGame\x64\Release\SimpleGame.ipdb
C:\Users\YongHwan\Desktop\GSE_Project\02_2014180020\SimpleGame\x64\Release\SimpleGame.iobj
^C:\Users\YongHwan\Desktop\GSE_Project\02_2014180020\SimpleGame\SimpleGame\SimpleGame.vcxproj
C:\Users\YongHwan\Desktop\GSE_Project\02_2014180020\SimpleGame\x64\Release\SimpleGame.ipdb
C:\Users\YongHwan\Desktop\GSE_Project\02_2014180020\SimpleGame\x64\Release\SimpleGame.iobj
^C:\Users\YongHwan\Desktop\GSE_Project\02_2014180020\SimpleGame\SimpleGame\SimpleGame.vcxproj
C:\Users\YongHwan\Desktop\GSE_Project\02_2014180020\SimpleGame\x64\Release\SimpleGame.ipdb
C:\Users\YongHwan\Desktop\GSE_Project\02_2014180020\SimpleGame\x64\Release\SimpleGame.iobj
^C:\Users\YongHwan\Desktop\GSE_Project\02_2014180020\SimpleGame\SimpleGame\SimpleGame.vcxproj
C:\Users\YongHwan\Desktop\GSE_Project\02_2014180020\SimpleGame\x64\Release\SimpleGame.ipdb
C:\Users\YongHwan\Desktop\GSE_Project\02_2014180020\SimpleGame\x64\Release\SimpleGame.iobj
^C:\Users\YongHwan\Desktop\GSE_Project\02_2014180020\SimpleGame\SimpleGame\SimpleGame.vcxproj
C:\Users\YongHwan\Desktop\GSE_Project\02_2014180020\SimpleGame\x64\Release\SimpleGame.ipdb
C:\Users\YongHwan\Desktop\GSE_Project\02_2014180020\SimpleGame\x64\Release\SimpleGame.iobj
^C:\Users\YongHwan\Desktop\GSE_Project\02_2014180020\SimpleGame\SimpleGame\SimpleGame.vcxproj
C:\Users\YongHwan\Desktop\GSE_Project\02_2014180020\SimpleGame\x64\Release\SimpleGame.ipdb
C:\Users\YongHwan\Desktop\GSE_Project\02_2014180020\SimpleGame\x64\Release\SimpleGame.iobj
^C:\Users\YongHwan\Desktop\GSE_Project\02_2014180020\SimpleGame\SimpleGame\SimpleGame.vcxproj
C:\Users\YongHwan\Desktop\GSE_Project\02_2014180020\SimpleGame\x64\Release\SimpleGame.ipdb
C:\Users\YongHwan\Desktop\GSE_Project\02_2014180020\SimpleGame\x64\Release\SimpleGame.iobj
^C:\Users\YongHwan\Desktop\GSE_Project\02_2014180020\SimpleGame\SimpleGame\SimpleGame.vcxproj
C:\Users\YongHwan\Desktop\GSE_Project\02_2014180020\SimpleGame\x64\Release\SimpleGame.ipdb
C:\Users\YongHwan\Desktop\GSE_Project\02_2014180020\SimpleGame\x64\Release\SimpleGame.iobj
^C:\Users\YongHwan\Desktop\GSE_Project\02_2014180020\SimpleGame\SimpleGame\SimpleGame.vcxproj
C:\Users\YongHwan\Desktop\GSE_Project\02_2014180020\SimpleGame\x64\Release\SimpleGame.ipdb
C:\Users\YongHwan\Desktop\GSE_Project\02_2014180020\SimpleGame\x64\Release\SimpleGame.iobj
^C:\Users\YongHwan\Desktop\GSE_Project\02_2014180020\SimpleGame\SimpleGame\SimpleGame.vcxproj
C:\Users\YongHwan\Desktop\GSE_Project\02_2014180020\SimpleGame\x64\Release\SimpleGame.ipdb
C:\Users\YongHwan\Desktop\GSE_Project\02_2014180020\SimpleGame\x64\Release\SimpleGame.iobj
^C:\Users\YongHwan\Desktop\GSE_Project\02_2014180020\SimpleGame\SimpleGame\SimpleGame.vcxproj
C:\Users\YongHwan\Desktop\GSE_Project\02_2014180020\SimpleGame\x64\Release\SimpleGame.ipdb
C:\Users\YongHwan\Desktop\GSE_Project\02_2014180020\SimpleGame\x64\Release\SimpleGame.iobj
^C:\Users\YongHwan\Desktop\GSE_Project\02_2014180020\SimpleGame\SimpleGame\SimpleGame.vcxproj
C:\Users\YongHwan\Desktop\GSE_Project\02_2014180020\SimpleGame\x64\Release\SimpleGame.ipdb
C:\Users\YongHwan\Desktop\GSE_Project\02_2014180020\SimpleGame\x64\Release\SimpleGame.iobj
^C:\Users\YongHwan\Desktop\GSE_Project\02_2014180020\SimpleGame\SimpleGame\SimpleGame.vcxproj
C:\Users\YongHwan\Desktop\GSE_Project\02_2014180020\SimpleGame\x64\Release\SimpleGame.ipdb
C:\Users\YongHwan\Desktop\GSE_Project\02_2014180020\SimpleGame\x64\Release\SimpleGame.iobj
^C:\Users\YongHwan\Desktop\GSE_Project\02_2014180020\SimpleGame\SimpleGame\SimpleGame.vcxproj
C:\Users\YongHwan\Desktop\GSE_Project\02_2014180020\SimpleGame\x64\Release\SimpleGame.ipdb
C:\Users\YongHwan\Desktop\GSE_Project\02_2014180020\SimpleGame\x64\Release\SimpleGame.iobj
